…
In the cancer data, I first pick the first 8 variables.

``` r
## Per instruction, I  pick the first 8 variables from the cancer dataset
cancer_sample<-datateachr::cancer_sample[,1:8]

## I make the diagnosis variable a factor variable to make analysis easier
cancer_sample$diagnosis <- as.factor(cancer_sample$diagnosis)

## I read the data set and find that each row is an observation for an individual tumor. Each columns are the records on the individual tumor.
cancer_sample
```

    ## # A tibble: 569 × 8
    ##          ID diagnosis radius_mean texture_mean perimet…¹ area_…² smoot…³ compa…⁴
    ##       <dbl> <fct>           <dbl>        <dbl>     <dbl>   <dbl>   <dbl>   <dbl>
    ##  1   842302 M                18.0         10.4     123.    1001   0.118   0.278 
    ##  2   842517 M                20.6         17.8     133.    1326   0.0847  0.0786
    ##  3 84300903 M                19.7         21.2     130     1203   0.110   0.160 
    ##  4 84348301 M                11.4         20.4      77.6    386.  0.142   0.284 
    ##  5 84358402 M                20.3         14.3     135.    1297   0.100   0.133 
    ##  6   843786 M                12.4         15.7      82.6    477.  0.128   0.17  
    ##  7   844359 M                18.2         20.0     120.    1040   0.0946  0.109 
    ##  8 84458202 M                13.7         20.8      90.2    578.  0.119   0.164 
    ##  9   844981 M                13           21.8      87.5    520.  0.127   0.193 
    ## 10 84501001 M                12.5         24.0      84.0    476.  0.119   0.240 
    ## # … with 559 more rows, and abbreviated variable names ¹​perimeter_mean,
    ## #   ²​area_mean, ³​smoothness_mean, ⁴​compactness_mean
…
Be sure to explain your reasoning for this task. Show us the “before”
and “after”.

<!--------------------------- Start your work below --------------------------->

Below code to **untidy** cancer data

``` r
## BEFORE: each row is an observation for an individual tumor
print(cancer_sample)
```

    ## # A tibble: 569 × 8
    ##          ID diagnosis radius_mean texture_mean perimet…¹ area_…² smoot…³ compa…⁴
    ##       <dbl> <fct>           <dbl>        <dbl>     <dbl>   <dbl>   <dbl>   <dbl>
    ##  1   842302 M                18.0         10.4     123.    1001   0.118   0.278 
    ##  2   842517 M                20.6         17.8     133.    1326   0.0847  0.0786
    ##  3 84300903 M                19.7         21.2     130     1203   0.110   0.160 
    ##  4 84348301 M                11.4         20.4      77.6    386.  0.142   0.284 
    ##  5 84358402 M                20.3         14.3     135.    1297   0.100   0.133 
    ##  6   843786 M                12.4         15.7      82.6    477.  0.128   0.17  
    ##  7   844359 M                18.2         20.0     120.    1040   0.0946  0.109 
    ##  8 84458202 M                13.7         20.8      90.2    578.  0.119   0.164 
    ##  9   844981 M                13           21.8      87.5    520.  0.127   0.193 
    ## 10 84501001 M                12.5         24.0      84.0    476.  0.119   0.240 
    ## # … with 559 more rows, and abbreviated variable names ¹​perimeter_mean,
    ## #   ²​area_mean, ³​smoothness_mean, ⁴​compactness_mean

``` r
## I lengthen the wide cancer data, so that each row only display one character
## Also, I display the diagnosis(M vs.B)in two columns

cancer_sample_untidy <- cancer_sample %>% 
                pivot_longer(cols=c('radius_mean', 'texture_mean','area_mean','smoothness_mean','compactness_mean','perimeter_mean'), names_to = "Cancer_Character", values_to = "value")   %>% 
            pivot_wider(names_from = diagnosis,values_from = value)

## AFTER: one observation of tumor is reported in 6 rows. For example, row 1-6 shows tumor ID 842302. This is obviously not tidy. Also, the the diagnosis(M vs.B) in two columns
print(cancer_sample_untidy)
```

    ## # A tibble: 3,414 × 4
    ##        ID Cancer_Character         M     B
    ##     <dbl> <chr>                <dbl> <dbl>
    ##  1 842302 radius_mean        18.0       NA
    ##  2 842302 texture_mean       10.4       NA
    ##  3 842302 area_mean        1001         NA
    ##  4 842302 smoothness_mean     0.118     NA
    ##  5 842302 compactness_mean    0.278     NA
    ##  6 842302 perimeter_mean    123.        NA
    ##  7 842517 radius_mean        20.6       NA
    ##  8 842517 texture_mean       17.8       NA
    ##  9 842517 area_mean        1326         NA
    ## 10 842517 smoothness_mean     0.0847    NA
    ## # … with 3,404 more rows

Below code **tidy** it back to it’s original state.

``` r
## BEFORE: one observation of tumor is reported in 6 rows. It is not tidy in this long shape, because the radius, texture, area, smoothness etc., should be separate variables. Also, the diagnosis(M versus B) is reported in two columns.

print(cancer_sample_untidy)
```

    ## # A tibble: 3,414 × 4
    ##        ID Cancer_Character         M     B
    ##     <dbl> <chr>                <dbl> <dbl>
    ##  1 842302 radius_mean        18.0       NA
    ##  2 842302 texture_mean       10.4       NA
    ##  3 842302 area_mean        1001         NA
    ##  4 842302 smoothness_mean     0.118     NA
    ##  5 842302 compactness_mean    0.278     NA
    ##  6 842302 perimeter_mean    123.        NA
    ##  7 842517 radius_mean        20.6       NA
    ##  8 842517 texture_mean       17.8       NA
    ##  9 842517 area_mean        1326         NA
    ## 10 842517 smoothness_mean     0.0847    NA
    ## # … with 3,404 more rows

``` r
## I widen the long data, so that I see the characters of each tumor by puttting these six characters as its own column. 
## Also, I put the the diagnosis is into one column
cancer_sample_tidy <- cancer_sample_untidy %>% 
  pivot_longer(cols=c('M', 'B'), names_to = "diagnosis", values_to = "value",
                            values_drop_na = TRUE) %>% 
  pivot_wider(names_from = "Cancer_Character", values_from = "value") 
              

## AFTER: Now the data is back to its original state. Each row is an observation for an individual tumor and the diagnosis is in one column
print(cancer_sample_tidy)
```

    ## # A tibble: 569 × 8
    ##          ID diagnosis radius_mean texture_mean area_mean smoot…¹ compa…² perim…³
    ##       <dbl> <chr>           <dbl>        <dbl>     <dbl>   <dbl>   <dbl>   <dbl>
    ##  1   842302 M                18.0         10.4     1001   0.118   0.278    123. 
    ##  2   842517 M                20.6         17.8     1326   0.0847  0.0786   133. 
    ##  3 84300903 M                19.7         21.2     1203   0.110   0.160    130  
    ##  4 84348301 M                11.4         20.4      386.  0.142   0.284     77.6
    ##  5 84358402 M                20.3         14.3     1297   0.100   0.133    135. 
    ##  6   843786 M                12.4         15.7      477.  0.128   0.17      82.6
    ##  7   844359 M                18.2         20.0     1040   0.0946  0.109    120. 
    ##  8 84458202 M                13.7         20.8      578.  0.119   0.164     90.2
    ##  9   844981 M                13           21.8      520.  0.127   0.193     87.5
    ## 10 84501001 M                12.5         24.0      476.  0.119   0.240     84.0
    ## # … with 559 more rows, and abbreviated variable names ¹​smoothness_mean,
    ## #   ²​compactness_mean, ³​perimeter_mean
…
``` r
## To answer question two, I first use select function to select the variables and use the mutate to cauculate the ratio.

question_2<-datateachr::cancer_sample %>%
  remove_missing()%>%
  select(c(ID,diagnosis,radius_mean,radius_worst))%>%
  mutate(radius_ratio=(radius_worst/radius_mean))

##cleaned data here
question_2$diagnosis <- as.factor(question_2$diagnosis)
print(question_2)
```

    ## # A tibble: 569 × 5
    ##          ID diagnosis radius_mean radius_worst radius_ratio
    ##       <dbl> <fct>           <dbl>        <dbl>        <dbl>
    ##  1   842302 M                18.0         25.4         1.41
    ##  2   842517 M                20.6         25.0         1.21
    ##  3 84300903 M                19.7         23.6         1.20
    ##  4 84348301 M                11.4         14.9         1.31
    ##  5 84358402 M                20.3         22.5         1.11
    ##  6   843786 M                12.4         15.5         1.24
    ##  7   844359 M                18.2         22.9         1.25
    ##  8 84458202 M                13.7         17.1         1.24
    ##  9   844981 M                13           15.5         1.19
    ## 10 84501001 M                12.5         15.1         1.21
    ## # … with 559 more rows
…
<!-------------------------- Start your work below ---------------------------->

``` r
## I first make the diagnosis a binary variable with malicous being 1.
cancer_sample %>%
mutate(Y_variable = if_else(diagnosis=="B",0,1)) -> task_3
print(task_3)
```

    ## # A tibble: 569 × 9
    ##          ID diagnosis radius_m…¹ textu…² perim…³ area_…⁴ smoot…⁵ compa…⁶ Y_var…⁷
    ##       <dbl> <fct>          <dbl>   <dbl>   <dbl>   <dbl>   <dbl>   <dbl>   <dbl>
    ##  1   842302 M               18.0    10.4   123.    1001   0.118   0.278        1
    ##  2   842517 M               20.6    17.8   133.    1326   0.0847  0.0786       1
    ##  3 84300903 M               19.7    21.2   130     1203   0.110   0.160        1
    ##  4 84348301 M               11.4    20.4    77.6    386.  0.142   0.284        1
    ##  5 84358402 M               20.3    14.3   135.    1297   0.100   0.133        1
    ##  6   843786 M               12.4    15.7    82.6    477.  0.128   0.17         1
    ##  7   844359 M               18.2    20.0   120.    1040   0.0946  0.109        1
    ##  8 84458202 M               13.7    20.8    90.2    578.  0.119   0.164        1
    ##  9   844981 M               13      21.8    87.5    520.  0.127   0.193        1
    ## 10 84501001 M               12.5    24.0    84.0    476.  0.119   0.240        1
    ## # … with 559 more rows, and abbreviated variable names ¹​radius_mean,
    ## #   ²​texture_mean, ³​perimeter_mean, ⁴​area_mean, ⁵​smoothness_mean,
    ## #   ⁶​compactness_mean, ⁷​Y_variable
…
<!-------------------------- Start your work below ---------------------------->

I choose to predict Y using broom package. The output dataset
“prediction” column named “.fitted” is the predicted value.

``` r
prediction<-broom::augment(fit)
print(prediction)
```

    ## # A tibble: 569 × 9
    ##    Y_variable radius_m…¹ smoot…² .fitted   .resid    .hat .sigma .cooksd .std.…³
    ##         <dbl>      <dbl>   <dbl>   <dbl>    <dbl>   <dbl>  <dbl>   <dbl>   <dbl>
    ##  1          1       18.0  0.118    0.921  0.0792  0.00733  0.311 1.61e-4  0.256 
    ##  2          1       20.6  0.0847   0.886  0.114   0.00999  0.311 4.60e-4  0.370 
    ##  3          1       19.7  0.110    1.01  -0.00863 0.00696  0.311 1.81e-6 -0.0279
    ##  4          1       11.4  0.142    0.499  0.501   0.0239   0.310 2.17e-2  1.63  
    ##  5          1       20.3  0.100    0.988  0.0117  0.00714  0.311 3.45e-6  0.0379
    ##  6          1       12.4  0.128    0.475  0.525   0.0119   0.310 1.16e-2  1.70  
    ##  7          1       18.2  0.0946   0.748  0.252   0.00436  0.311 9.62e-4  0.812 
    ##  8          1       13.7  0.119    0.520  0.480   0.00656  0.310 5.29e-3  1.55  
    ##  9          1       13    0.127    0.523  0.477   0.0112   0.310 8.98e-3  1.55  
    ## 10          1       12.5  0.119    0.399  0.601   0.00716  0.310 9.05e-3  1.94  
    ## # … with 559 more rows, and abbreviated variable names ¹​radius_mean,
    ## #   ²​smoothness_mean, ³​.std.resid
…
